{
  "columns": [
    {
      "name": "Cosmics"
    },
    {
      "name": "Cosmics + SingleJet16"
    },
    {
      "name": "Cosmics + High Random"
    },
    {
      "name": "Cosmics + Medium Random"
    },
    {
      "name": "Muons Only"
    },
    {
      "name": "High EG"
    },
    {
      "name": "High Jets"
    },
    {
      "name": "HighBPTX"
    }
  ]
}